…
``` r
mean_excellent_df = brfss_df %>% 
  filter(response == "Excellent") %>% 
  group_by(year,state) %>% 
  mutate(
    mean_data_value = mean(data_value, na.rm = TRUE)
  ) %>% 
  select(year, state, mean_data_value) %>% 
  distinct()
mean_excellent_df
```

    ## # A tibble: 443 × 3
    ## # Groups:   year, state [443]
    ##     year state mean_data_value
    ##    <int> <chr>           <dbl>
    ##  1  2010 AL               18.4
    ##  2  2010 AZ               21.6
    ##  3  2010 AR               25.4
    ##  4  2010 CA               23.9
    ##  5  2010 CO               25.4
    ##  6  2010 CT               24.2
    ##  7  2010 DE               20.3
    ##  8  2010 DC               26.1
    ##  9  2010 FL               19.6
    ## 10  2010 GA               23.1
    ## # … with 433 more rows
…
